0	3	0	0.4
1	0	6	0.3
2	None	(1, 10)	1.0
3	0	7	0.8
4	2	9	0.8
5	1	3	0.8
6	1	5	0.4
7	3	9	0.7
8	None	(1, 10)	0.9
9	0	9	0.9
10	None	(2, 10)	0.9
11	None	(3, 10)	0.7
12	None	(1, 10)	0.9
13	0	9	0.9
14	0	9	0.9
15	0	7	0.7
16	None	(1, 10)	0.9
17	None	(2, 10)	0.8
18	None	(1, 10)	1.0
19	None	(1, 9)	0.8
20	None	(1, 10)	1.0
21	0	9	0.9
22	0	9	0.6
23	0	8	0.8
24	1	7	0.8
25	1	9	1.0
26	1	9	1.0
27	None	(1, 10)	1.0
28	3	9	0.8
29	0	9	0.9
30	None	(1, 10)	0.9
31	None	(1, 10)	1.0
32	1	9	1.0
33	None	(2, 10)	0.9
34	0	0	0.5
35	0	9	0.9
36	None	(1, 10)	1.0
37	1	8	0.9
38	1	8	0.8
39	1	9	0.9
40	1	6	0.6
41	2	9	0.8
42	None	(1, 10)	0.8
43	1	8	0.8
44	None	(2, 10)	0.9
45	None	(2, 10)	0.8
46	1	9	1.0
47	1	7	0.8
48	None	(1, 10)	1.0
49	None	(1, 10)	1.0
50	0	9	0.7
51	0	9	0.9
52	0	7	0.7
53	0	9	0.9
54	2	8	0.7
55	0	8	0.8
56	1	7	0.7
57	None	(1, 10)	0.9
58	2	7	0.8
59	1	9	1.0
60	None	(1, 10)	1.0
61	1	9	0.8
62	1	9	1.0
63	0	9	0.8
64	None	(2, 10)	0.9
65	None	(2, 10)	0.9
66	0	9	0.9
67	0	8	0.8
68	1	6	0.8
69	None	(1, 10)	0.9
70	0	9	0.8
71	0	8	0.7
72	1	9	1.0
73	0	9	0.9
74	None	(1, 10)	1.0
75	0	9	0.9
76	None	(2, 10)	0.8
77	None	(1, 10)	1.0
78	None	(2, 10)	0.9
79	None	(1, 10)	1.0
80	2	6	0.8
81	None	(2, 10)	0.9
82	0	2	0.4
83	None	(2, 10)	0.8
84	1	0	0.6
85	None	(2, 10)	0.9
86	1	9	1.0
87	1	9	0.9
88	0	8	0.6
89	0	9	0.9
90	None	(1, 10)	1.0
91	1	8	0.9
92	None	(2, 10)	0.8
93	0	2	0.7
94	0	9	0.9
95	1	5	0.8
96	None	(2, 10)	0.9
97	None	(1, 10)	1.0
98	2	9	0.9
99	0	9	0.8
100	None	(1, 10)	1.0
101	None	(1, 10)	1.0
102	3	6	0.8
103	1	9	0.9
104	1	9	0.9
105	1	9	1.0
106	None	(2, 10)	0.9
107	None	(2, 10)	0.9
108	4	2	0.7
109	1	9	1.0
110	0	9	0.8
111	0	9	0.7
112	None	(1, 10)	1.0
113	None	(1, 10)	0.9
114	None	(1, 9)	0.9
115	None	(1, 10)	1.0
116	None	(2, 9)	0.4
117	2	0	0.5
118	1	3	0.7
119	1	8	0.9
120	None	(1, 8)	0.7
121	None	(1, 10)	0.9
122	None	(2, 10)	0.8
123	1	9	1.0
124	0	5	0.6
125	None	(1, 10)	0.7
126	0	3	0.5
127	1	8	0.9
128	None	(2, 10)	0.6
129	None	(2, 10)	0.8
